{
  "id": "fake-site",
  "type": "Site",
  "defaultSource": {
    "id": "fake-source",
    "type": "Source"
  },
  "dataPrivate": true,
  "name": "Field -11.77, -45.72",
  "country": {
    "@id": "GADM-BRA",
    "@type": "Term",
    "name": "Brazil"
  },
  "siteType": "cropland",
  "measurements": [
    {
      "@type": "Measurement",
      "term": {
        "@type": "Term",
        "@id": "organicCarbonPerM3Soil"
      },
      "value": [
        100
      ],
      "methodClassification": "modelled using other physical measurements"
    }
  ]
}
