[
  {
    "term": {
      "@id": "ch4ToAirCropResidueBurning",
      "@type": "Term"
    },
    "value": [
      0.5820000000000001
    ],
    "methodTier": "tier 1",
    "@type": "Emission",
    "methodModel": {
      "@type": "Term",
      "@id": "akagiEtAl2011AndIpcc2006"
    },
    "statsDefinition": "modelled"
  }
]
