[
  {
    "term": {
      "@id": "no3ToGroundwaterSoilFlux",
      "@type": "Term"
    },
    "value": [
      42.22709446776612
    ],
    "methodTier": "tier 2",
    "@type": "Emission",
    "methodModel": {
      "@type": "Term",
      "@id": "pooreNemecek2018"
    },
    "statsDefinition": "modelled"
  }
]
