{
  "id": "1",
  "type": "Cycle",
  "name": "fake cycle",
  "functionalUnit": "1 ha",
  "defaultSource": {
    "id": "1",
    "type": "Source"
  },
  "description": "cCTSRN0",
  "site": {
    "id": "1",
    "type": "Site",
    "siteType": "cropland"
  },
  "dataPrivate": false,
  "endDate": "2008-12",
  "cycleDuration": 365,
  "practices": [
    {
      "@type": "Practice",
      "term": {
        "@type": "Term",
        "@id": "croppingIntensity",
        "name": "Cropping intensity",
        "termType": "landUseManagement"
      },
      "value": [
        0.7254266055435731
      ]
    }
  ],
  "completeness": {
    "type": "Completeness",
    "electricityFuel": true,
    "material": true,
    "fertiliser": true,
    "other": true,
    "pesticidesAntibiotics": true,
    "soilAmendments": true,
    "water": true,
    "products": true,
    "cropResidue": true,
    "animalFeed": true,
    "transport": false,
    "excreta": true,
    "waste": true,
    "liveAnimals": true,
    "operations": true
  },
  "defaultMethodClassification": "modelled",
  "defaultMethodClassificationDescription": "description"
}
