{
  "id": "fake-cycle",
  "type": "Cycle",
  "functionalUnit": "1 ha",
  "dataPrivate": false,
  "startDate": "2011",
  "startDateDefinition": "sowing date",
  "endDate": "2012",
  "defaultSource": {
    "id": "fake-source",
    "type": "Source"
  },
  "site": {
    "id": "fake-site",
    "type": "Site"
  },
  "products": [
    {
      "term": {
        "@type": "Term",
        "name": "Hazelnut, in shell",
        "termType": "crop",
        "@id": "hazelnutInShell",
        "units": "kg"
      },
      "value": [
        450.2
      ],
      "primary": true,
      "@type": "Product"
    }
  ],
  "name": "Hazelnut, in shell - Rudsar, Iran - 2012",
  "completeness": {
    "fertiliser": true,
    "soilAmendments": false,
    "pesticidesAntibiotics": true,
    "water": false,
    "electricityFuel": true,
    "products": true,
    "cropResidue": false,
    "animalFeed": false,
    "material": false,
    "other": false,
    "@type": "Completeness",
    "transport": false,
    "excreta": true,
    "waste": true,
    "liveAnimals": true,
    "operations": true
  },
  "defaultMethodClassification": "modelled",
  "defaultMethodClassificationDescription": "description"
}
