[
  {
    "@type": "Indicator",
    "term": {
      "@type": "Term",
      "@id": "landOccupationDuringCycle"
    },
    "methodModel": {
      "@type": "Term",
      "@id": "pooreNemecek2018"
    },
    "value": 11.94369130636913
  }
]
