{
  "@type": "Indicator",
  "term": {
    "@id": "damageToTerrestrialEcosystemsSpeciesYear",
    "@type": "Term"
  },
  "methodModel": {
    "@id": "recipe2016Individualist",
    "@type": "Term"
  },
  "value": 8.88e-9
}
