{
  "id": "fake-cycle",
  "type": "Cycle",
  "name": "fake cycle",
  "functionalUnit": "1 ha",
  "defaultSource": {
    "id": "fake-source",
    "type": "Source"
  },
  "dataPrivate": false,
  "endDate": "2009",
  "cycleDuration": 365,
  "site": {
    "id": "fake-site",
    "type": "Site",
    "siteType": "cropland",
    "measurements": [
      {
        "term": {
          "@type": "Term",
          "@id": "ecoClimateZone"
        },
        "value": [
          1
        ],
        "@type": "Measurement",
        "methodClassification": "unsourced assumption"
      },
      {
        "term": {
          "@type": "Term",
          "@id": "histosol"
        },
        "value": [
          60
        ],
        "@type": "Measurement",
        "methodClassification": "unsourced assumption"
      }
    ]
  },
  "practices": [
    {
      "@type": "Practice",
      "term": {
        "@id": "longFallowRatio",
        "@type": "Term",
        "termType": "landUseManagement"
      },
      "value": [
        1
      ]
    }
  ],
  "products": [
    {
      "term": {
        "@type": "Term",
        "name": "Cereals, grain",
        "termType": "crop",
        "@id": "cerealGrain",
        "units": "kg"
      },
      "description": "Wheat, grain; Barley, grain",
      "value": [
        10000
      ],
      "economicValueShare": 100,
      "primary": true,
      "@type": "Product"
    }
  ],
  "completeness": {
    "@type": "Completeness",
    "electricityFuel": true,
    "material": true,
    "fertiliser": true,
    "other": true,
    "pesticidesAntibiotics": true,
    "soilAmendments": true,
    "water": true,
    "products": true,
    "cropResidue": true,
    "animalFeed": true,
    "transport": false,
    "excreta": true,
    "waste": true,
    "liveAnimals": true,
    "operations": true
  },
  "defaultMethodClassification": "modelled",
  "defaultMethodClassificationDescription": "description"
}
