{
  "@type": "Indicator",
  "term": {
    "@type": "Term",
    "@id": "ozoneDepletionPotential"
  },
  "methodModel": {
    "@type": "Term",
    "@id": "recipe2016Individualist"
  },
  "value": 0.0000025195806132897423
}
