{
  "@type": "Indicator",
  "term": {
    "@type": "Term",
    "@id": "damageToHumanHealthClimateChange"
  },
  "methodModel": {
    "@type": "Term",
    "@id": "lcImpactAllEffectsInfinite"
  },
  "value": 0.0000035659604761968374
}
