{
  "id": "fake-impact",
  "type": "ImpactAssessment",
  "product": {
    "@type": "Product",
    "term": {
      "@type": "Term",
      "@id": "diesel"
    }
  },
  "functionalUnitQuantity": 1,
  "endDate": "2017-12-31",
  "country": {
    "@type": "Term",
    "name": "World",
    "termType": "region",
    "@id": "region-world"
  },
  "allocationMethod": "economic",
  "versionDetails": "ecoinvent 3.4_cutoff_ecoSpold02",
  "emissionsResourceUse": [
    {
      "term": {
        "@type": "Term",
        "name": "NH3, to air, inputs production",
        "termType": "emission",
        "@id": "nh3ToAirInputsProduction",
        "units": "kg NH3"
      },
      "value": 0.0000189,
      "@type": "Indicator"
    },
    {
      "term": {
        "@type": "Term",
        "name": "CO2, to air, inputs production",
        "termType": "emission",
        "@id": "co2ToAirInputsProduction",
        "units": "kg CO2"
      },
      "value": 0.5577147324,
      "@type": "Indicator"
    },
    {
      "term": {
        "@type": "Term",
        "name": "N2O, to air, inputs production",
        "termType": "emission",
        "@id": "n2OToAirInputsProduction",
        "units": "kg N2O"
      },
      "value": 0.0000104,
      "@type": "Indicator"
    },
    {
      "term": {
        "@type": "Term",
        "name": "CH4, to air, inputs production, fossil",
        "termType": "emission",
        "@id": "ch4ToAirInputsProductionFossil",
        "units": "kg CH4"
      },
      "value": 0.00185833164,
      "@type": "Indicator"
    },
    {
      "term": {
        "@type": "Term",
        "name": "CH4, to air, inputs production, non-fossil",
        "termType": "emission",
        "@id": "ch4ToAirInputsProductionNonFossil",
        "units": "kg CH4"
      },
      "value": 0.00000994,
      "@type": "Indicator"
    },
    {
      "term": {
        "@type": "Term",
        "name": "NOx, to air, inputs production",
        "termType": "emission",
        "@id": "noxToAirInputsProduction",
        "units": "kg NOx"
      },
      "value": 0.001948292893,
      "@type": "Indicator"
    },
    {
      "term": {
        "@type": "Term",
        "name": "SO2, to air, inputs production",
        "termType": "emission",
        "@id": "so2ToAirInputsProduction",
        "units": "kg SO2"
      },
      "value": 0.004248647646,
      "@type": "Indicator"
    },
    {
      "term": {
        "@type": "Term",
        "name": "Bromochlorodifluoromethane, to air, inputs production",
        "termType": "emission",
        "@id": "bromochlorodifluoromethaneToAirInputsProduction",
        "units": "kg CBrClF2"
      },
      "value": 3.22e-10,
      "@type": "Indicator"
    },
    {
      "term": {
        "@type": "Term",
        "name": "Chlorodifluoromethane, to air, inputs production",
        "termType": "emission",
        "@id": "chlorodifluoromethaneToAirInputsProduction",
        "units": "kg CHClF2"
      },
      "value": 8.52e-9,
      "@type": "Indicator"
    },
    {
      "term": {
        "@type": "Term",
        "name": "Dichlorodifluoromethane, to air, inputs production",
        "termType": "emission",
        "@id": "dichlorodifluoromethaneToAirInputsProduction",
        "units": "kg CCl2F2"
      },
      "value": 8.78e-12,
      "@type": "Indicator"
    },
    {
      "term": {
        "@type": "Term",
        "name": "1,1,2-Trichlorotrifluoroethane, to air, inputs production",
        "termType": "emission",
        "@id": "112TrichlorotrifluoroethaneToAirInputsProduction",
        "units": "kg C2Cl3F3"
      },
      "value": 1.4e-11,
      "@type": "Indicator"
    },
    {
      "term": {
        "@type": "Term",
        "name": "1,1-Dichlorotetrafluoroethane, to air, inputs production",
        "termType": "emission",
        "@id": "11DichlorotetrafluoroethaneToAirInputsProduction",
        "units": "kg C2Cl2F4"
      },
      "value": 2.05e-9,
      "@type": "Indicator"
    },
    {
      "term": {
        "@type": "Term",
        "name": "1,1,1,2-Tetrafluoroethane, to air, inputs production",
        "termType": "emission",
        "@id": "1112TetrafluoroethaneToAirInputsProduction",
        "units": "kg C2H2F4"
      },
      "value": 1.04e-10,
      "@type": "Indicator"
    }
  ],
  "source": {
    "@type": "Source",
    "name": "Wernet et al (2016)",
    "@id": "yd7cksqd57vl"
  },
  "organic": false,
  "irrigated": false,
  "name": "Diesel, World, 2017-12-31, Conventional-Non Irrigated",
  "dataPrivate": false
}
