{
  "id": "fake-site",
  "type": "Site",
  "dataPrivate": true,
  "country": {
    "@id": "GADM-AUS",
    "@type": "Term",
    "name": "Australia"
  },
  "siteType": "cropland",
  "measurements": []
}
