{
  "id": "fake-cycle",
  "type": "Cycle",
  "site": {
    "id": "fake-site",
    "type": "Site",
    "siteType": "cropland",
    "measurements": [
      {
        "term": {
          "@type": "Term",
          "@id": "ecoClimateZone"
        },
        "value": [
          2
        ],
        "@type": "Measurement",
        "methodClassification": "unsourced assumption"
      }
    ]
  },
  "name": "fake cycle",
  "functionalUnit": "1 ha",
  "defaultSource": {
    "id": "fake-source",
    "type": "Source"
  },
  "dataPrivate": false,
  "endDate": "2009",
  "cycleDuration": 365,
  "products": [
    {
      "@type": "Product",
      "term": {
        "@type": "Term",
        "@id": "aboveGroundCropResidueLeftOnField"
      },
      "value": [
        1000
      ],
      "properties": [
        {
          "@type": "Property",
          "term": {
            "@id": "nitrogenContent",
            "@type": "Term",
            "units": "%"
          },
          "value": 1
        }
      ]
    },
    {
      "@type": "Product",
      "term": {
        "@type": "Term",
        "@id": "belowGroundCropResidue"
      },
      "value": [
        500
      ],
      "properties": [
        {
          "@type": "Property",
          "term": {
            "@id": "nitrogenContent",
            "@type": "Term",
            "units": "%"
          },
          "value": 0.5
        }
      ]
    }
  ],
  "completeness": {
    "@type": "Completeness",
    "electricityFuel": true,
    "material": true,
    "fertiliser": true,
    "other": true,
    "pesticidesAntibiotics": true,
    "soilAmendments": true,
    "water": true,
    "products": true,
    "cropResidue": true,
    "animalFeed": true,
    "transport": false,
    "excreta": true,
    "waste": true,
    "liveAnimals": true,
    "operations": true
  },
  "defaultMethodClassification": "modelled",
  "defaultMethodClassificationDescription": "description"
}
