[
  {
    "term": {
      "@id": "siltContent",
      "@type": "Term"
    },
    "value": [
      24
    ],
    "depthLower": 30,
    "depthUpper": 0,
    "statsDefinition": "spatial",
    "methodClassification": "geospatial dataset",
    "@type": "Measurement"
  }
]
