[
  {
    "term": {
      "@id": "n2OToAirOrganicFertiliserDirect",
      "@type": "Term"
    },
    "value": [
      0.27584320045110416
    ],
    "methodTier": "tier 1",
    "@type": "Emission",
    "methodModel": {
      "@type": "Term",
      "@id": "ipcc2006"
    },
    "statsDefinition": "modelled"
  }
]
