[
  {
    "term": {
      "@id": "noxToAirFuelCombustion",
      "@type": "Term"
    },
    "value": [
      0.5921510919999999
    ],
    "methodTier": "tier 1",
    "@type": "Emission",
    "methodModel": {
      "@type": "Term",
      "@id": "emepEea2019"
    },
    "statsDefinition": "modelled"
  }
]
