[
  {
    "@type": "Emission",
    "term": {
      "@type": "Term",
      "@id": "n2OToAirInorganicFertiliserIndirect"
    },
    "methodModel": {
      "@type": "Term",
      "@id": "ipcc2019"
    },
    "value": [
    0.2869496752321542
    ],
    "min": [
      0.16177562456396608
    ],
    "max": [
      0.39738673939359576
    ],
    "sd": [
      0.05890277870740741
    ],
    "statsDefinition": "modelled",
    "methodTier": "tier 1"
  }
]
