[
  {
    "@type": "Product",
    "term": {
      "@type": "Term",
      "@id": "excretaPoultryKgN"
    },
    "value": [
      1.615473684210525
    ],
    "statsDefinition": "modelled",
    "model": {
      "@type": "Term",
      "@id": "pooreNemecek2018"
    }
  }
]
