{
  "@type": "Indicator",
  "term": {
    "@type": "Term",
    "@id": "freshwaterAquaticEcotoxicityPotential14Dcbeq"
  },
  "methodModel": {
    "@type": "Term",
    "@id": "recipe2016Individualist"
  },
  "value": 3.0593034859707716e-7
}
