{
  "id": "fake-id",
  "type": "Cycle",
  "name": "fake cycle",
  "functionalUnit": "1 ha",
  "defaultSource": {
    "id": "fake-id",
    "type": "Source"
  },
  "dataPrivate": false,
  "endDate": "2009",
  "cycleDuration": 365,
  "site": {
    "id": "fake-id",
    "type": "Site",
    "siteType": "animal housing",
    "country": {
      "@type": "Term",
      "@id": "GADM-GBR"
    }
  },
  "products": [
    {
      "term": {
        "@type": "Term",
        "name": "Meat, beef cattle (cold carcass weight)",
        "termType": "animalProduct",
        "@id": "meatBeefCattleColdCarcassWeight",
        "units": "kg cold carcass weight"
      },
      "value": [
        8.023106546854944
      ],
      "primary": true,
      "properties": [
        {
          "term": {
            "@type": "Term",
            "name": "Liveweight per head",
            "termType": "property",
            "@id": "liveweightPerHead",
            "units": "kg liveweight / head"
          },
          "value": 460,
          "@type": "Property"
        },
        {
          "term": {
            "@type": "Term",
            "termType": "property",
            "@id": "processingConversionLiveweightToColdCarcassWeight",
            "units": "%"
          },
          "value": 50,
          "@type": "Property"
        }
      ],
      "@type": "Product"
    }
  ],
  "completeness": {
    "@type": "Completeness",
    "electricityFuel": true,
    "material": true,
    "fertiliser": true,
    "other": false,
    "pesticidesAntibiotics": true,
    "soilAmendments": true,
    "water": true,
    "products": true,
    "cropResidue": true,
    "animalFeed": true,
    "transport": false,
    "excreta": true,
    "waste": true,
    "liveAnimals": true,
    "operations": true
  },
  "defaultMethodClassification": "modelled",
  "defaultMethodClassificationDescription": "description"
}
