[
  {
    "term": {
      "@type": "Term",
      "@id": "ch4ToAirFloodedRice"
    },
    "value": [
      259.38323957622697
    ],
    "methodModel": {
      "@type": "Term",
      "@id": "ipcc2019"
    },
    "methodTier": "tier 1",
    "min": [
      102.89192726472982
    ],
    "max": [
      576.0224442603334
    ],
    "sd": [
      118.28262924890089
    ],
    "statsDefinition": "modelled",
    "@type": "Emission"
  }
]
